Drone.sim/sim_1/behav/xsim/simulate.log
Time resolution is 1 ps
Time=0 PC=0 Score1=0 Score2=0 Score3=0 Score4=0 Score5=0
Time=7 PC=1 Score1=0 Score2=0 Score3=0 Score4=0 Score5=0
Time=27 PC=2 Score1=0 Score2=0 Score3=0 Score4=0 Score5=0
Time=47 PC=3 Score1=0 Score2=0 Score3=0 Score4=0 Score5=0
Time=67 PC=4 Score1=0 Score2=0 Score3=0 Score4=0 Score5=0
Time=87 PC=5 Score1=0 Score2=0 Score3=0 Score4=0 Score5=0
Time=107 PC=6 Score1=0 Score2=0 Score3=0 Score4=0 Score5=0
Time=127 PC=7 Score1=0 Score2=0 Score3=0 Score4=0 Score5=0
Time=147 PC=8 Score1=0 Score2=0 Score3=0 Score4=0 Score5=0
Time=167 PC=9 Score1=0 Score2=0 Score3=0 Score4=0 Score5=0
Time=187 PC=10 Score1=0 Score2=0 Score3=0 Score4=0 Score5=0
Time=207 PC=11 Score1=0 Score2=0 Score3=0 Score4=0 Score5=0
Time=227 PC=12 Score1=0 Score2=0 Score3=0 Score4=0 Score5=0
Time=247 PC=13 Score1=0 Score2=0 Score3=0 Score4=0 Score5=0
Time=267 PC=14 Score1=0 Score2=0 Score3=0 Score4=0 Score5=0
Time=287 PC=15 Score1=0 Score2=0 Score3=0 Score4=0 Score5=0
Time=307 PC=16 Score1=0 Score2=0 Score3=0 Score4=0 Score5=0
Time=327 PC=17 Score1=0 Score2=0 Score3=0 Score4=0 Score5=0
Time=347 PC=18 Score1=0 Score2=0 Score3=0 Score4=0 Score5=0
Time=367 PC=19 Score1=0 Score2=0 Score3=0 Score4=0 Score5=0
Time=387 PC=20 Score1=0 Score2=0 Score3=0 Score4=0 Score5=0
Time=407 PC=21 Score1=0 Score2=0 Score3=0 Score4=0 Score5=0
Time=417 PC=21 Score1=85 Score2=0 Score3=0 Score4=0 Score5=0
Time=427 PC=22 Score1=85 Score2=0 Score3=0 Score4=0 Score5=0
Time=447 PC=23 Score1=85 Score2=0 Score3=0 Score4=0 Score5=0
Time=467 PC=24 Score1=85 Score2=0 Score3=0 Score4=0 Score5=0
Time=487 PC=25 Score1=85 Score2=0 Score3=0 Score4=0 Score5=0
Time=507 PC=26 Score1=85 Score2=0 Score3=0 Score4=0 Score5=0
Time=527 PC=27 Score1=85 Score2=0 Score3=0 Score4=0 Score5=0
Time=547 PC=28 Score1=85 Score2=0 Score3=0 Score4=0 Score5=0
Time=567 PC=29 Score1=85 Score2=0 Score3=0 Score4=0 Score5=0
Time=587 PC=30 Score1=85 Score2=0 Score3=0 Score4=0 Score5=0
Time=607 PC=31 Score1=85 Score2=0 Score3=0 Score4=0 Score5=0
Time=627 PC=32 Score1=85 Score2=0 Score3=0 Score4=0 Score5=0
Time=647 PC=33 Score1=85 Score2=0 Score3=0 Score4=0 Score5=0
Time=667 PC=34 Score1=85 Score2=0 Score3=0 Score4=0 Score5=0
Time=687 PC=35 Score1=85 Score2=0 Score3=0 Score4=0 Score5=0
Time=707 PC=36 Score1=85 Score2=0 Score3=0 Score4=0 Score5=0
Time=727 PC=37 Score1=85 Score2=0 Score3=0 Score4=0 Score5=0
Time=747 PC=38 Score1=85 Score2=0 Score3=0 Score4=0 Score5=0
Time=767 PC=39 Score1=85 Score2=0 Score3=0 Score4=0 Score5=0
Time=787 PC=40 Score1=85 Score2=0 Score3=0 Score4=0 Score5=0
Time=807 PC=41 Score1=85 Score2=0 Score3=0 Score4=0 Score5=0
Time=827 PC=42 Score1=85 Score2=0 Score3=0 Score4=0 Score5=0
Time=847 PC=43 Score1=85 Score2=0 Score3=0 Score4=0 Score5=0
Time=867 PC=44 Score1=85 Score2=0 Score3=0 Score4=0 Score5=0
Time=887 PC=45 Score1=85 Score2=0 Score3=0 Score4=0 Score5=0
Time=897 PC=45 Score1=85 Score2=83 Score3=0 Score4=0 Score5=0
Time=907 PC=46 Score1=85 Score2=83 Score3=0 Score4=0 Score5=0
Time=927 PC=47 Score1=85 Score2=83 Score3=0 Score4=0 Score5=0
Time=947 PC=48 Score1=85 Score2=83 Score3=0 Score4=0 Score5=0
Time=967 PC=49 Score1=85 Score2=83 Score3=0 Score4=0 Score5=0
Time=987 PC=50 Score1=85 Score2=83 Score3=0 Score4=0 Score5=0
Time=1007 PC=51 Score1=85 Score2=83 Score3=0 Score4=0 Score5=0
Time=1027 PC=52 Score1=85 Score2=83 Score3=0 Score4=0 Score5=0
Time=1047 PC=53 Score1=85 Score2=83 Score3=0 Score4=0 Score5=0
Time=1067 PC=54 Score1=85 Score2=83 Score3=0 Score4=0 Score5=0
Time=1087 PC=55 Score1=85 Score2=83 Score3=0 Score4=0 Score5=0
Time=1107 PC=56 Score1=85 Score2=83 Score3=0 Score4=0 Score5=0
Time=1127 PC=57 Score1=85 Score2=83 Score3=0 Score4=0 Score5=0
Time=1147 PC=58 Score1=85 Score2=83 Score3=0 Score4=0 Score5=0
Time=1167 PC=59 Score1=85 Score2=83 Score3=0 Score4=0 Score5=0
Time=1187 PC=60 Score1=85 Score2=83 Score3=0 Score4=0 Score5=0
Time=1207 PC=61 Score1=85 Score2=83 Score3=0 Score4=0 Score5=0
Time=1227 PC=62 Score1=85 Score2=83 Score3=0 Score4=0 Score5=0
Time=1247 PC=63 Score1=85 Score2=83 Score3=0 Score4=0 Score5=0
Time=1267 PC=64 Score1=85 Score2=83 Score3=0 Score4=0 Score5=0
Time=1287 PC=65 Score1=85 Score2=83 Score3=0 Score4=0 Score5=0
Time=1307 PC=66 Score1=85 Score2=83 Score3=0 Score4=0 Score5=0
Time=1327 PC=67 Score1=85 Score2=83 Score3=0 Score4=0 Score5=0
Time=1347 PC=68 Score1=85 Score2=83 Score3=0 Score4=0 Score5=0
Time=1367 PC=69 Score1=85 Score2=83 Score3=0 Score4=0 Score5=0
Time=1377 PC=69 Score1=85 Score2=83 Score3=99 Score4=0 Score5=0
Time=1387 PC=70 Score1=85 Score2=83 Score3=99 Score4=0 Score5=0
Time=1407 PC=71 Score1=85 Score2=83 Score3=99 Score4=0 Score5=0
Time=1427 PC=72 Score1=85 Score2=83 Score3=99 Score4=0 Score5=0
Time=1447 PC=73 Score1=85 Score2=83 Score3=99 Score4=0 Score5=0
Time=1467 PC=74 Score1=85 Score2=83 Score3=99 Score4=0 Score5=0
Time=1487 PC=75 Score1=85 Score2=83 Score3=99 Score4=0 Score5=0
Time=1507 PC=76 Score1=85 Score2=83 Score3=99 Score4=0 Score5=0
Time=1527 PC=77 Score1=85 Score2=83 Score3=99 Score4=0 Score5=0
Time=1547 PC=78 Score1=85 Score2=83 Score3=99 Score4=0 Score5=0
Time=1567 PC=79 Score1=85 Score2=83 Score3=99 Score4=0 Score5=0
Time=1587 PC=80 Score1=85 Score2=83 Score3=99 Score4=0 Score5=0
Time=1607 PC=81 Score1=85 Score2=83 Score3=99 Score4=0 Score5=0
Time=1627 PC=82 Score1=85 Score2=83 Score3=99 Score4=0 Score5=0
Time=1647 PC=83 Score1=85 Score2=83 Score3=99 Score4=0 Score5=0
Time=1667 PC=84 Score1=85 Score2=83 Score3=99 Score4=0 Score5=0
Time=1687 PC=85 Score1=85 Score2=83 Score3=99 Score4=0 Score5=0
Time=1707 PC=86 Score1=85 Score2=83 Score3=99 Score4=0 Score5=0
Time=1727 PC=87 Score1=85 Score2=83 Score3=99 Score4=0 Score5=0
Time=1747 PC=88 Score1=85 Score2=83 Score3=99 Score4=0 Score5=0
Time=1767 PC=89 Score1=85 Score2=83 Score3=99 Score4=0 Score5=0
Time=1787 PC=90 Score1=85 Score2=83 Score3=99 Score4=0 Score5=0
Time=1807 PC=91 Score1=85 Score2=83 Score3=99 Score4=0 Score5=0
Time=1827 PC=92 Score1=85 Score2=83 Score3=99 Score4=0 Score5=0
Time=1847 PC=93 Score1=85 Score2=83 Score3=99 Score4=0 Score5=0
Time=1857 PC=93 Score1=85 Score2=83 Score3=99 Score4=90 Score5=0
Time=1867 PC=94 Score1=85 Score2=83 Score3=99 Score4=90 Score5=0
Time=1887 PC=95 Score1=85 Score2=83 Score3=99 Score4=90 Score5=0
Time=1907 PC=96 Score1=85 Score2=83 Score3=99 Score4=90 Score5=0
Time=1927 PC=97 Score1=85 Score2=83 Score3=99 Score4=90 Score5=0
Time=1947 PC=98 Score1=85 Score2=83 Score3=99 Score4=90 Score5=0
Time=1967 PC=99 Score1=85 Score2=83 Score3=99 Score4=90 Score5=0
Time=1987 PC=100 Score1=85 Score2=83 Score3=99 Score4=90 Score5=0
Time=2007 PC=101 Score1=85 Score2=83 Score3=99 Score4=90 Score5=0
Time=2027 PC=102 Score1=85 Score2=83 Score3=99 Score4=90 Score5=0
Time=2047 PC=103 Score1=85 Score2=83 Score3=99 Score4=90 Score5=0
Time=2067 PC=104 Score1=85 Score2=83 Score3=99 Score4=90 Score5=0
Time=2087 PC=105 Score1=85 Score2=83 Score3=99 Score4=90 Score5=0
Time=2107 PC=106 Score1=85 Score2=83 Score3=99 Score4=90 Score5=0
Time=2127 PC=107 Score1=85 Score2=83 Score3=99 Score4=90 Score5=0
Time=2147 PC=108 Score1=85 Score2=83 Score3=99 Score4=90 Score5=0
Time=2167 PC=109 Score1=85 Score2=83 Score3=99 Score4=90 Score5=0
Time=2187 PC=110 Score1=85 Score2=83 Score3=99 Score4=90 Score5=0
Time=2207 PC=111 Score1=85 Score2=83 Score3=99 Score4=90 Score5=0
Time=2227 PC=112 Score1=85 Score2=83 Score3=99 Score4=90 Score5=0
Time=2247 PC=113 Score1=85 Score2=83 Score3=99 Score4=90 Score5=0
Time=2267 PC=114 Score1=85 Score2=83 Score3=99 Score4=90 Score5=0
Time=2287 PC=115 Score1=85 Score2=83 Score3=99 Score4=90 Score5=0
Time=2307 PC=116 Score1=85 Score2=83 Score3=99 Score4=90 Score5=0
Time=2327 PC=117 Score1=85 Score2=83 Score3=99 Score4=90 Score5=0
Time=2337 PC=117 Score1=85 Score2=83 Score3=99 Score4=90 Score5=72
Time=2347 PC=118 Score1=85 Score2=83 Score3=99 Score4=90 Score5=72
Time=2367 PC=119 Score1=85 Score2=83 Score3=99 Score4=90 Score5=72
Time=2387 PC=120 Score1=85 Score2=83 Score3=99 Score4=90 Score5=72
Time=2407 PC=121 Score1=85 Score2=83 Score3=99 Score4=90 Score5=72
==================================
Processed Rescue Scores:
Score1 = 85  (expected 85)
Score2 = 83  (expected 83)
Score3 = 99  (expected 99)
Score4 = 90  (expected 90)
Score5 = 72  (expected 72)
==================================
$finish called at time : 10 us : File "F:/Vivado/Drone/Drone.srcs/sim_1/new/pipe_MIPS32_tb.v" Line 314
